{
  "name": "Config",
  "icon": "fa-book",
  "description": "Configure the EWARS installation",
  "token": "config",
  "access": [
    "ACCOUNT_ADMIN"
  ],
  "enabled": false,
  "route": "/admin/config",
  "version": "0.0.2",
  "category": "Admin"
}